%YAML 1.1
%TAG !u! tag:unity3d.com,2011:
--- !u!114 &11400000
MonoBehaviour:
  m_ObjectHideFlags: 0
  m_PrefabParentObject: {fileID: 0}
  m_PrefabInternal: {fileID: 0}
  m_GameObject: {fileID: 0}
  m_Enabled: 1
  m_EditorHideFlags: 0
  m_Script: {fileID: 0}
  m_Name: Mapper
  m_EditorClassIdentifier: Assembly-CSharp::GungeonMapper
  BGKey: {r: 1, g: 1, b: 1, a: 1}
  GemKey: {r: 1, g: 0, b: 0, a: 1}
  StartKey: {r: 0, g: 1, b: 0, a: 1}
  AltarKey: {r: 0, g: 0, b: 1, a: 1}
